Wrangling Tidyverse
…
summarize apply your functions to EACH GROUP

ex_27 <- starwars |> 
  filter(homeworld %in% c("Naboo", "Tattoiine")) |> 
  group_by(species) |> 
  summarize(mean_height = mean(height , na.rm = TRUE),
            mean_mass = mean(mass, na.rm = TRUE))

# count counts observations
# combination of group_by summarize n()

starwars |> 
  count(homeworld, species)

# A tibble: 58 × 3
   homeworld      species       n
   <chr>          <chr>     <int>
 1 Alderaan       Human         3
 2 Aleen Minor    Aleena        1
 3 Bespin         Human         1
 4 Bestine IV     Human         1
 5 Cato Neimoidia Neimodian     1
 6 Cerea          Cerean        1
 7 Champala       Chagrian      1
 8 Chandrila      Human         1
 9 Concord Dawn   Human         1
10 Corellia       Human         2
# … with 48 more rows
# ℹ Use `print(n = ...)` to see more rows

starwars |> 
  group_by(homeworld, species) |> 
  summarize(size = n(),
            mean_height = mean(height, na.rm = TRUE))

`summarise()` has grouped output by 'homeworld'. You can override using the
`.groups` argument.

# A tibble: 58 × 4
# Groups:   homeworld [49]
   homeworld      species    size mean_height
   <chr>          <chr>     <int>       <dbl>
 1 Alderaan       Human         3        176.
 2 Aleen Minor    Aleena        1         79 
 3 Bespin         Human         1        175 
 4 Bestine IV     Human         1        180 
 5 Cato Neimoidia Neimodian     1        191 
 6 Cerea          Cerean        1        198 
 7 Champala       Chagrian      1        196 
 8 Chandrila      Human         1        150 
 9 Concord Dawn   Human         1        183 
10 Corellia       Human         2        175 
# … with 48 more rows
# ℹ Use `print(n = ...)` to see more rows
…
